[
    "index.html",
    "about-me.html",
    [
        "what-is-bdd.html",
        "bdd-overview.html",
        "dsl.html"
    ],
    [
        "gherkin.html",
        "gherkin-overview.html",
        "gherkin-example.html",
        "useful-example.html",
        {
            "filename": "what-s-next.html",
            "attr": {
                "data-background": "#fff"
            }
        }
    ],
    [
        "enter-behat.html",
        "what-is-behat.html",
        "behat-drupal.html",
        "what-does-the-drupal-extension-give-you.html",
        "drupal-specific-step-definitions.html",
        "multiple-drivers-for-running-your-suite.html",
        "tasty-goodness-to-use-in-your-featurecontext.html"
    ],
    [
        "featurecontext.html",
        "featurecontext-example-part-two.html",
        "featurecontext-example.html",
        "featurecontext-example-feature.html"
    ],
    [
        "writing-a-good-scenario.html",
        "common-pitfalls-mistakes.html",
        "overcomplication.html",
        "overcomplication-1.html",
        "overtesting.html",
        "using-behat-for-everything.html",
        "behat-is-not-for-unit-spec-testing.html"
    ],
    {
        "filename": "fin.html",
        "attr": {
            "data-background": "#000"
        }
    }
]
